127.0.0.1 - - [04/Sep/2015:17:36:54 +0530] "GET / HTTP/1.1" 404 951
127.0.0.1 - - [04/Sep/2015:17:36:55 +0530] "GET /payperclick/index.jsp HTTP/1.1" 500 3553
127.0.0.1 - - [04/Sep/2015:17:56:52 +0530] "GET / HTTP/1.1" 404 951
127.0.0.1 - - [04/Sep/2015:17:56:53 +0530] "GET /payperclick/ HTTP/1.1" 302 -
127.0.0.1 - - [04/Sep/2015:17:56:53 +0530] "GET /payperclick/search HTTP/1.1" 404 987
127.0.0.1 - - [04/Sep/2015:17:57:45 +0530] "GET /payperclick/search HTTP/1.1" 404 987
127.0.0.1 - - [04/Sep/2015:17:57:47 +0530] "GET /payperclick/search HTTP/1.1" 404 987
127.0.0.1 - - [04/Sep/2015:17:58:18 +0530] "GET /payperclick/search HTTP/1.1" 404 987
127.0.0.1 - - [04/Sep/2015:17:59:41 +0530] "GET / HTTP/1.1" 404 951
127.0.0.1 - - [04/Sep/2015:17:59:42 +0530] "GET /payperclick/ HTTP/1.1" 302 -
127.0.0.1 - - [04/Sep/2015:17:59:42 +0530] "GET /payperclick/search HTTP/1.1" 404 987
127.0.0.1 - - [04/Sep/2015:18:01:05 +0530] "GET / HTTP/1.1" 404 951
127.0.0.1 - - [04/Sep/2015:18:01:05 +0530] "GET /payperclick/ HTTP/1.1" 302 -
127.0.0.1 - - [04/Sep/2015:18:01:05 +0530] "GET /payperclick/search HTTP/1.1" 404 949
127.0.0.1 - - [04/Sep/2015:18:02:55 +0530] "GET / HTTP/1.1" 404 951
127.0.0.1 - - [04/Sep/2015:18:02:55 +0530] "GET /payperclick/ HTTP/1.1" 302 -
127.0.0.1 - - [04/Sep/2015:18:02:55 +0530] "GET /payperclick/search HTTP/1.1" 404 949
127.0.0.1 - - [04/Sep/2015:18:06:12 +0530] "GET / HTTP/1.1" 404 951
127.0.0.1 - - [04/Sep/2015:18:06:12 +0530] "GET /payperclick/ HTTP/1.1" 302 -
127.0.0.1 - - [04/Sep/2015:18:06:13 +0530] "GET /payperclick/search HTTP/1.1" 200 409
127.0.0.1 - - [04/Sep/2015:18:13:42 +0530] "GET /payperclick/search?query= HTTP/1.1" 200 409
127.0.0.1 - - [04/Sep/2015:18:14:20 +0530] "POST /payperclick/query HTTP/1.1" 302 -
127.0.0.1 - - [04/Sep/2015:18:14:29 +0530] "GET /payperclick/search?query= HTTP/1.1" 200 409
127.0.0.1 - - [04/Sep/2015:18:22:19 +0530] "POST /payperclick/query HTTP/1.1" 302 -
127.0.0.1 - - [04/Sep/2015:18:25:45 +0530] "GET / HTTP/1.1" 404 951
127.0.0.1 - - [04/Sep/2015:18:25:45 +0530] "GET /payperclick/ HTTP/1.1" 302 -
127.0.0.1 - - [04/Sep/2015:18:25:45 +0530] "GET /payperclick/search HTTP/1.1" 200 409
127.0.0.1 - - [04/Sep/2015:18:26:05 +0530] "POST /payperclick/query HTTP/1.1" 302 -
127.0.0.1 - - [04/Sep/2015:18:26:05 +0530] "GET /payperclick/null HTTP/1.1" 404 949
127.0.0.1 - - [04/Sep/2015:18:26:53 +0530] "GET /payperclick/search HTTP/1.1" 200 409
127.0.0.1 - - [04/Sep/2015:18:26:53 +0530] "POST /payperclick/query HTTP/1.1" 302 -
127.0.0.1 - - [04/Sep/2015:18:27:02 +0530] "GET /payperclick/search HTTP/1.1" 200 409
127.0.0.1 - - [04/Sep/2015:18:28:42 +0530] "POST /payperclick/query HTTP/1.1" 302 -
127.0.0.1 - - [04/Sep/2015:18:31:04 +0530] "GET /payperclick/search HTTP/1.1" 200 409
127.0.0.1 - - [04/Sep/2015:18:34:22 +0530] "GET /payperclick/search HTTP/1.1" 200 444
127.0.0.1 - - [04/Sep/2015:18:34:23 +0530] "GET /payperclick/search HTTP/1.1" 200 444
127.0.0.1 - - [04/Sep/2015:18:34:24 +0530] "GET /payperclick/search HTTP/1.1" 200 444
127.0.0.1 - - [04/Sep/2015:18:34:35 +0530] "GET / HTTP/1.1" 404 951
127.0.0.1 - - [04/Sep/2015:18:34:35 +0530] "GET /payperclick/ HTTP/1.1" 302 -
127.0.0.1 - - [04/Sep/2015:18:34:35 +0530] "GET /payperclick/search HTTP/1.1" 200 444
127.0.0.1 - - [04/Sep/2015:18:34:54 +0530] "GET /payperclick/search HTTP/1.1" 200 445
127.0.0.1 - - [04/Sep/2015:18:34:55 +0530] "GET /payperclick/search HTTP/1.1" 200 445
127.0.0.1 - - [04/Sep/2015:18:35:07 +0530] "GET / HTTP/1.1" 404 951
127.0.0.1 - - [04/Sep/2015:18:35:07 +0530] "GET /payperclick/ HTTP/1.1" 302 -
127.0.0.1 - - [04/Sep/2015:18:35:08 +0530] "GET /payperclick/search HTTP/1.1" 200 445
127.0.0.1 - - [04/Sep/2015:18:35:30 +0530] "GET /payperclick/search HTTP/1.1" 200 457
127.0.0.1 - - [04/Sep/2015:18:35:50 +0530] "GET / HTTP/1.1" 404 951
127.0.0.1 - - [04/Sep/2015:18:35:51 +0530] "GET /payperclick/ HTTP/1.1" 302 -
127.0.0.1 - - [04/Sep/2015:18:35:51 +0530] "GET /payperclick/search HTTP/1.1" 200 457
127.0.0.1 - - [04/Sep/2015:18:36:54 +0530] "GET /payperclick/search HTTP/1.1" 200 473
127.0.0.1 - - [04/Sep/2015:18:37:09 +0530] "GET / HTTP/1.1" 404 951
127.0.0.1 - - [04/Sep/2015:18:37:09 +0530] "GET /payperclick/ HTTP/1.1" 302 -
127.0.0.1 - - [04/Sep/2015:18:37:09 +0530] "GET /payperclick/search HTTP/1.1" 200 473
127.0.0.1 - - [04/Sep/2015:18:37:18 +0530] "GET /payperclick/search HTTP/1.1" 200 473
127.0.0.1 - - [04/Sep/2015:18:37:18 +0530] "GET /favicon.ico HTTP/1.1" 404 973
127.0.0.1 - - [04/Sep/2015:18:37:18 +0530] "GET /favicon.ico HTTP/1.1" 404 973
127.0.0.1 - - [04/Sep/2015:18:37:43 +0530] "GET /payperclick/search HTTP/1.1" 200 474
127.0.0.1 - - [04/Sep/2015:18:38:09 +0530] "GET / HTTP/1.1" 404 951
127.0.0.1 - - [04/Sep/2015:18:38:09 +0530] "GET /payperclick/ HTTP/1.1" 302 -
127.0.0.1 - - [04/Sep/2015:18:38:09 +0530] "GET /payperclick/search HTTP/1.1" 200 474
127.0.0.1 - - [04/Sep/2015:18:58:59 +0530] "POST /payperclick/query HTTP/1.1" 200 356
127.0.0.1 - - [04/Sep/2015:18:59:33 +0530] "GET / HTTP/1.1" 404 951
127.0.0.1 - - [04/Sep/2015:18:59:34 +0530] "GET /payperclick/ HTTP/1.1" 302 -
127.0.0.1 - - [04/Sep/2015:18:59:35 +0530] "GET /payperclick/search HTTP/1.1" 200 423
127.0.0.1 - - [04/Sep/2015:18:59:37 +0530] "POST /payperclick/query HTTP/1.1" 200 356
127.0.0.1 - - [04/Sep/2015:19:40:49 +0530] "GET /payperclick/search HTTP/1.1" 200 423
127.0.0.1 - - [04/Sep/2015:19:40:58 +0530] "POST /payperclick/query HTTP/1.1" 302 -
127.0.0.1 - - [04/Sep/2015:20:17:10 +0530] "GET / HTTP/1.1" 404 951
127.0.0.1 - - [04/Sep/2015:20:17:11 +0530] "GET /payperclick/ HTTP/1.1" 302 -
127.0.0.1 - - [04/Sep/2015:20:17:11 +0530] "GET /payperclick/search HTTP/1.1" 200 423
127.0.0.1 - - [04/Sep/2015:20:19:19 +0530] "GET / HTTP/1.1" 404 951
127.0.0.1 - - [04/Sep/2015:20:19:19 +0530] "GET /payperclick/ HTTP/1.1" 302 -
127.0.0.1 - - [04/Sep/2015:20:19:19 +0530] "GET /payperclick/search HTTP/1.1" 200 423
127.0.0.1 - - [04/Sep/2015:20:27:55 +0530] "GET / HTTP/1.1" 404 951
127.0.0.1 - - [04/Sep/2015:20:27:56 +0530] "GET /payperclick/ HTTP/1.1" 302 -
127.0.0.1 - - [04/Sep/2015:20:27:56 +0530] "GET /payperclick/search HTTP/1.1" 200 423
127.0.0.1 - - [04/Sep/2015:20:29:57 +0530] "GET / HTTP/1.1" 404 951
127.0.0.1 - - [04/Sep/2015:20:29:57 +0530] "GET /payperclick/ HTTP/1.1" 302 -
127.0.0.1 - - [04/Sep/2015:20:29:57 +0530] "GET /payperclick/search HTTP/1.1" 200 423
127.0.0.1 - - [04/Sep/2015:20:31:55 +0530] "GET / HTTP/1.1" 404 951
127.0.0.1 - - [04/Sep/2015:20:31:55 +0530] "GET /payperclick/ HTTP/1.1" 302 -
127.0.0.1 - - [04/Sep/2015:20:31:56 +0530] "GET /payperclick/search HTTP/1.1" 200 423
127.0.0.1 - - [04/Sep/2015:20:36:20 +0530] "GET / HTTP/1.1" 404 951
127.0.0.1 - - [04/Sep/2015:20:36:20 +0530] "GET /payperclick/ HTTP/1.1" 302 -
127.0.0.1 - - [04/Sep/2015:20:36:20 +0530] "GET /payperclick/search HTTP/1.1" 500 8737
127.0.0.1 - - [04/Sep/2015:21:12:13 +0530] "GET / HTTP/1.1" 404 951
127.0.0.1 - - [04/Sep/2015:21:12:14 +0530] "GET /payperclick/ HTTP/1.1" 302 -
127.0.0.1 - - [04/Sep/2015:21:12:14 +0530] "GET /payperclick/search HTTP/1.1" 200 423
127.0.0.1 - - [04/Sep/2015:21:12:39 +0530] "POST /payperclick/query HTTP/1.1" 302 -
127.0.0.1 - - [04/Sep/2015:21:14:38 +0530] "GET /payperclick/search HTTP/1.1" 200 423
127.0.0.1 - - [04/Sep/2015:21:18:41 +0530] "GET / HTTP/1.1" 404 951
127.0.0.1 - - [04/Sep/2015:21:18:41 +0530] "GET /payperclick/ HTTP/1.1" 302 -
127.0.0.1 - - [04/Sep/2015:21:18:41 +0530] "GET /payperclick/search HTTP/1.1" 200 423
127.0.0.1 - - [04/Sep/2015:21:18:43 +0530] "POST /payperclick/query HTTP/1.1" 404 1021
127.0.0.1 - - [04/Sep/2015:21:37:54 +0530] "GET / HTTP/1.1" 404 951
127.0.0.1 - - [04/Sep/2015:21:37:55 +0530] "GET /payperclick/ HTTP/1.1" 302 -
127.0.0.1 - - [04/Sep/2015:21:37:56 +0530] "GET /payperclick/search HTTP/1.1" 200 702
127.0.0.1 - - [04/Sep/2015:21:41:03 +0530] "GET / HTTP/1.1" 404 951
127.0.0.1 - - [04/Sep/2015:21:41:04 +0530] "GET /payperclick/ HTTP/1.1" 302 -
127.0.0.1 - - [04/Sep/2015:21:41:04 +0530] "GET /payperclick/search HTTP/1.1" 200 433
127.0.0.1 - - [04/Sep/2015:21:42:18 +0530] "POST /payperclick/query HTTP/1.1" 200 715
127.0.0.1 - - [04/Sep/2015:21:45:05 +0530] "POST /payperclick/query HTTP/1.1" 200 730
127.0.0.1 - - [04/Sep/2015:21:45:08 +0530] "POST /payperclick/query HTTP/1.1" 200 730
127.0.0.1 - - [04/Sep/2015:21:45:22 +0530] "POST /payperclick/query HTTP/1.1" 200 743
127.0.0.1 - - [04/Sep/2015:21:54:55 +0530] "GET / HTTP/1.1" 404 951
127.0.0.1 - - [04/Sep/2015:21:54:56 +0530] "GET /payperclick/ HTTP/1.1" 302 -
127.0.0.1 - - [04/Sep/2015:21:54:57 +0530] "GET /payperclick/search HTTP/1.1" 200 433
127.0.0.1 - - [04/Sep/2015:21:54:59 +0530] "POST /payperclick/query HTTP/1.1" 200 728
127.0.0.1 - - [04/Sep/2015:22:01:12 +0530] "GET / HTTP/1.1" 404 951
127.0.0.1 - - [04/Sep/2015:22:01:12 +0530] "GET /payperclick/ HTTP/1.1" 302 -
127.0.0.1 - - [04/Sep/2015:22:01:13 +0530] "GET /payperclick/search HTTP/1.1" 500 4441
127.0.0.1 - - [04/Sep/2015:22:08:08 +0530] "GET / HTTP/1.1" 404 951
127.0.0.1 - - [04/Sep/2015:22:08:08 +0530] "GET /payperclick/ HTTP/1.1" 302 -
127.0.0.1 - - [04/Sep/2015:22:08:09 +0530] "GET /payperclick/search HTTP/1.1" 500 4267
127.0.0.1 - - [04/Sep/2015:22:08:42 +0530] "GET / HTTP/1.1" 404 951
127.0.0.1 - - [04/Sep/2015:22:08:42 +0530] "GET /payperclick/ HTTP/1.1" 302 -
127.0.0.1 - - [04/Sep/2015:22:08:43 +0530] "GET /payperclick/search HTTP/1.1" 200 433
127.0.0.1 - - [04/Sep/2015:22:08:55 +0530] "POST /payperclick/query HTTP/1.1" 200 749
127.0.0.1 - - [04/Sep/2015:22:12:01 +0530] "POST /payperclick/query HTTP/1.1" 200 749
127.0.0.1 - - [04/Sep/2015:22:26:09 +0530] "GET / HTTP/1.1" 404 951
127.0.0.1 - - [04/Sep/2015:22:26:10 +0530] "GET /payperclick/ HTTP/1.1" 302 -
127.0.0.1 - - [04/Sep/2015:22:26:10 +0530] "GET /payperclick/search HTTP/1.1" 500 4279
127.0.0.1 - - [04/Sep/2015:22:27:07 +0530] "GET / HTTP/1.1" 404 951
127.0.0.1 - - [04/Sep/2015:22:27:07 +0530] "GET /payperclick/ HTTP/1.1" 302 -
127.0.0.1 - - [04/Sep/2015:22:27:08 +0530] "GET /payperclick/search HTTP/1.1" 200 436
127.0.0.1 - - [04/Sep/2015:22:27:13 +0530] "POST /payperclick/query HTTP/1.1" 200 752
127.0.0.1 - - [04/Sep/2015:22:28:52 +0530] "POST /payperclick/query HTTP/1.1" 200 805
127.0.0.1 - - [04/Sep/2015:22:29:29 +0530] "GET /payperclick/ads/tshirts HTTP/1.1" 200 253
127.0.0.1 - - [04/Sep/2015:22:29:31 +0530] "POST /payperclick/query HTTP/1.1" 200 805
127.0.0.1 - - [04/Sep/2015:22:30:34 +0530] "GET /payperclick/ads/tshirts HTTP/1.1" 200 253
127.0.0.1 - - [04/Sep/2015:22:31:03 +0530] "POST /payperclick/query HTTP/1.1" 200 805
127.0.0.1 - - [04/Sep/2015:22:31:09 +0530] "POST /payperclick/query HTTP/1.1" 200 801
127.0.0.1 - - [04/Sep/2015:22:31:20 +0530] "POST /payperclick/query HTTP/1.1" 200 801
127.0.0.1 - - [04/Sep/2015:22:31:21 +0530] "GET /payperclick/ads/iphone HTTP/1.1" 200 253
127.0.0.1 - - [04/Sep/2015:22:31:27 +0530] "POST /payperclick/query HTTP/1.1" 200 801
127.0.0.1 - - [04/Sep/2015:22:44:21 +0530] "GET /payperclick/ads/iphone HTTP/1.1" 200 253
127.0.0.1 - - [04/Sep/2015:23:08:35 +0530] "GET / HTTP/1.1" 404 951
127.0.0.1 - - [04/Sep/2015:23:08:36 +0530] "GET /payperclick/ HTTP/1.1" 302 -
127.0.0.1 - - [04/Sep/2015:23:08:36 +0530] "GET /payperclick/search HTTP/1.1" 200 436
127.0.0.1 - - [04/Sep/2015:23:08:47 +0530] "POST /payperclick/query HTTP/1.1" 200 809
127.0.0.1 - - [04/Sep/2015:23:09:02 +0530] "GET /payperclick/ads/iphone%206 HTTP/1.1" 200 253
127.0.0.1 - - [04/Sep/2015:23:09:03 +0530] "POST /payperclick/query HTTP/1.1" 200 809
127.0.0.1 - - [04/Sep/2015:23:09:49 +0530] "POST /payperclick/query HTTP/1.1" 200 809
